lab2/verilog/alu_wave.vcd
$date
	Sun Feb 04 11:03:14 2018
$end
$version
	Icarus Verilog
$end
$timescale
	1s
$end
$scope module tb_alu $end
$scope module dut $end
$var wire 64 ! A [63:0] $end
$var wire 64 " B [63:0] $end
$var wire 3 # cntrol [2:0] $end
$var wire 1 $ ncntrol $end
$var wire 1 % t0 $end
$var wire 1 & zero $end
$var wire 64 ' result [63:0] $end
$var wire 1 ( overflow $end
$var wire 1 ) of $end
$var wire 1 * negative $end
$var wire 1 + carry_out $end
$var wire 1 , c $end
$var wire 64 - XOR [63:0] $end
$var wire 64 . OR [63:0] $end
$var wire 64 / AND [63:0] $end
$var wire 64 0 ADD [63:0] $end
$upscope $end
$upscope $end
$enddefinitions $end
#0
$dumpvars
b1111111111111111111111111111111100011100010110101001001000111000 0
b1111111111111111111111111111111110000000000000010000010000000000 /
b1111111111111111111111111111111110011100010110011000111000111000 .
b11100010110001000101000111000 -
1,
0+
1*
0)
0(
b1111111111111111111111111111111110011100010110011000010000111000 '
0&
0%
1$
b0 #
b1111111111111111111111111111111110011100010110011000010000111000 "
b1111111111111111111111111111111110000000000000010000111000000000 !
$end
#5
0)
b1111111111111111111111111111111110101110000100110000110001011100 '
0,
b1111111111111111111111111111111111110001011011000100010111100010 0
b10000100010000100000000100 /
b1111111111111111111111111111111111101111010110110011110111011110 .
b1111111111111111111111111111111111101101010010100011010111011010 -
b1111111111111111111111111111111110101110000100110000110001011100 "
b1000011010110010011100110000110 !
#10
0*
b1100011110011001001011111000111 '
b11001010111011111001111110010101 0
b1100011000000000000011111000110 /
b1100111111011111001011111001111 .
b100111011111001000000001001 -
b1100011110011001001011111000111 "
b1100111001000110000011111001110 !
#15
1*
1,
b1111111111111111111111111111111111111001110101110110001011110011 '
b1111111111111111111111111111111111011100111010101000111110111001 0
b1111111111111111111111111111111111100001000100110010000011000010 /
b1111111111111111111111111111111111111011110101110110111011110111 .
b11010110001000100111000110101 -
b1111111111111111111111111111111111111001110101110110001011110011 "
b1111111111111111111111111111111111100011000100110010110011000110 !
#20
0)
b1111111111111111111111111111111110101111100011110100100001011111 '
1,
b10001011001101011000000100010 0
b100001100001110100000001000011 /
b1111111111111111111111111111111111101111110111110110111111011111 .
b1111111111111111111111111111111111001110010110000010111110011100 -
b1111111111111111111111111111111110101111100011110100100001011111 "
b1100001110101110110011111000011 !
#25
0,
0)
b1111111111111111111111111111111111000100111010110010000010001001 '
b1111111111111111111111111111111111101000011100111000010111010000 0
b100010000010000000000001 /
b1111111111111111111111111111111111100111111010110110010111001111 .
b1111111111111111111111111111111111100111011000110100010111001110 -
b1111111111111111111111111111111111000100111010110010000010001001 "
b100011100010000110010101000111 !
#30
b1111111111111111111111111111111110100010110111000001100001000101 '
1,
b1111111111111111111111111111111101100010000000101011010011000011 0
b1111111111111111111111111111111110100010000001000001100001000100 /
b1111111111111111111111111111111110111111111111101001110001111111 .
b11101111110101000010000111011 -
b1111111111111111111111111111111110100010110111000001100001000101 "
b1111111111111111111111111111111110111111001001101001110001111110 !
#35
0)
0*
0,
b1001000110101000010000110010001 '
b1111111111111111111111111111111111110111101011100101000111101110 0
b1000110100000010000000010001 /
b1111111111111111111111111111111111101110110111100011000111011101 .
b1111111111111111111111111111111111100110000011100001000111001100 -
b1001000110101000010000110010001 "
b1111111111111111111111111111111110101110110110100011000001011101 !
#40
0,
0)
1*
b1111111111111111111111111111111111000111100010110100001010001111 '
b1111111111111111111111111111111111111110111110010001010111111101 0
b111000010010100001000001110 /
b1111111111111111111111111111111111110111111011111101001111101111 .
b1111111111111111111111111111111111110000111001101001000111100001 -
b1111111111111111111111111111111111000111100010110100001010001111 "
b110111011011011101001101101110 !
#45
1,
0)
b1111111111111111111111111111111111100100110111000000001011001001 '
b11000110001010000000000101 0
b100000111000000000000001000 /
b1111111111111111111111111111111111111110111111001001111111111101 .
b1111111111111111111111111111111111111010111000001001111111110101 -
b1111111111111111111111111111111111100100110111000000001011001001 "
b11110001111001001110100111100 !
#50
0*
b1011111110110011011100010111111 '
1+
b1011111110110011011100010111111 0
b1100000000010101100000011000000 /
b1111111111111111111111111111111111111111110011101111011111111111 .
b1111111111111111111111111111111110011111110001000011011100111111 -
1%
b1111111111111111111111111111111111101110010011101100001011011100 "
b1110001100010101111010111100011 !
b10 #
#55
1*
b1111111111111111111111111111111101000101101011101001001010001011 '
b1111111111111111111111111111111101000101101011101001001010001011 0
b1111111111111111111111111111111110000110000000000010000000001100 /
b1111111111111111111111111111111110111111101011100111001001111111 .
b111001101011100101001001110011 -
b1111111111111111111111111111111110101111101011000010000001011111 "
b1111111111111111111111111111111110010110000000100111001000101100 !
#60
0(
0)
1*
0+
b1111111111111111111111111111111111110001011101110000010111100010 '
0,
b1111111111111111111111111111111111110001011101110000010111100010 0
b1000100010000001000000010001 /
b1111111111111111111111111111111111101000111011101111010111010001 .
b1111111111111111111111111111111111100000011001101110010111000000 -
b1101000101011100101010111010001 "
b1111111111111111111111111111111110001000110010001011000000010001 !
#65
1*
b1111111111111111111111111111111111101001000100101101001111010001 '
b1111111111111111111111111111111111101001000100101101001111010001 0
b1010010001010000000000 /
b1111111111111111111111111111111111101000111010011011111111010001 .
b1111111111111111111111111111111111101000110000001010101111010001 -
b1111111111111111111111111111111111101000101010011001010011010001 "
b11010010011111100000000 !
#70
0*
1+
1,
0(
0)
b11000010011011110010000110000 '
b11000010011011110010000110000 0
b11000100000100111000000110001 /
b1111111111111111111111111111111111111111110010110111001111111111 .
b1111111111111111111111111111111111100111010010010000001111001110 -
b1111111111111111111111111111111110011000110000110111001000110001 "
b1111111100010100111000111111111 !
#75
1*
b1111111111111111111111111111111101011000001101101000100010110000 '
b1111111111111111111111111111111101011000001101101000100010110000 0
b1111111111111111111111111111111110100001000000010000110001000010 /
b1111111111111111111111111111111110110111001101010111110001101110 .
b10110001101000111000000101100 -
b1111111111111111111111111111111110100101000100010011110001001010 "
b1111111111111111111111111111111110110011001001010100110001100110 !
#80
0(
0)
1*
b1111111111111111111111111111111111011101011011011011111110111010 '
0+
0,
b1111111111111111111111111111111111011101011011011011111110111010 0
b10101100000100000000000101 /
b1111111111111111111111111111111111011010101111010111111110110101 .
b1111111111111111111111111111111111011000000011010011111110110000 -
b1111111111111111111111111111111110010010101101010101110000100101 "
b1001010101110000110001110010101 !
#85
b1111111111111111111111111111111111100000100000010110000111000000 '
b1111111111111111111111111111111111100000100000010110000111000000 0
b100000011010001000000001 /
b1111111111111111111111111111111111011111111111111011111110111111 .
b1111111111111111111111111111111111011111011111100001110110111110 -
b1111111111111111111111111111111111010100110100111011011010101001 "
b1011101011011010101100010111 !
#90
0(
0)
0*
b101101111000000111101001011010 '
1+
1,
b101101111000000111101001011010 0
b1000001111000010000101010000011 /
b1111111111111111111111111111111111101011111111110110111111010111 .
b1111111111111111111111111111111110101010000111100110010101010100 -
b1001011111101010000101110010111 "
b1111111111111111111111111111111111100001111010110110111011000011 !
#95
0*
b11001001011110010111111110010010 '
0+
0,
b11001001011110010111111110010010 0
b1001010000000000000001110010100 /
b1111111011110010111101111111110 .
b110101011110010111100001101010 -
b1111011001100010101101111110110 "
b1001110010010000010001110011100 !
#100
0(
0)
1*
b1111111111111111111111111111111111101100001000000000100111011000 '
1+
b1111111111111111111111111111111111101100001000000000100111011000 0
b1111111111111111111111111111111110000000000110010000010000000000 /
b1111111111111111111111111111111110010100011110010111111000101000 .
b10100011000000111101000101000 -
1,
b1111111111111111111111111111111110010100001110010011110000101000 "
b1111111111111111111111111111111110000000010110010100011000000000 !
b11 #
#105
0*
0+
0,
0(
0)
b11100101111101111110000111001 '
b11100101111101111110000111001 0
b1111111111111111111111111111111110010011000101000100001000100110 /
b1111111111111111111111111111111111110111110101110100011011101111 .
b1100100110000110000010011001001 -
b1111111111111111111111111111111110110111000101100100011001101110 "
b1111111111111111111111111111111111010011110101010100001010100111 !
#110
0*
b101110010001011110011001011101 '
1+
1,
b101110010001011110011001011101 0
b100000000000000 /
b1111111111111111111111111111111111010110101110100111101110101101 .
b1111111111111111111111111111111111010110101110100011101110101101 -
b1111111111111111111111111111111111010100001110100110101010101000 "
b10100000000101000100000101 !
#115
b1011011001001100000000010110110 '
b1011011001001100000000010110110 0
b1010010000101000101010010100100 /
b1111111111111111111111111111111111110111011111100101010111101110 .
b1111111111111111111111111111111110100101011010100000000101001010 -
b1111111111111111111111111111111111110111001101100101010011101110 "
b1010010010111000101010110100100 !
#120
1*
b1111111111111111111111111111111110111110011001001110100101111101 '
b1111111111111111111111111111111110111110011001001110100101111101 0
b1100000000101001000100011000 /
b1001110101111111111111110011101 .
b1000010101111010110111010000101 -
b1001110001011101101001110011100 "
b1100100100111011110100011001 !
#125
1*
b1111111111111111111111111111111101010110011011100011111010101101 '
0+
0,
b1111111111111111111111111111111101010110011011100011111010101101 0
b1000100010000010010010010001000 /
b1111111111111111111111111111111111111101111111110110010111111011 .
b1111111111111111111111111111111110111001101111100100000101110011 -
b1110101111010010010010111101011 "
b1111111111111111111111111111111111001100010101110110010010011000 !
#130
0(
0)
0*
b1001101000010000011000010011 '
0+
0,
b1001101000010000011000010011 0
b1000100000001100111000110001000 /
b1111101101001110111011111111011 .
b111001101000010000011001110011 -
b1011100000001100111000110111000 "
b1100101101001110111011111001011 !
#135
0*
1+
b10011001111110010011000100110100 '
1,
b10011001111110010011000100110100 0
b1010000100001100000000010100001 /
b1111111111111111111111111111111111111010111111110101000111110101 .
b1111111111111111111111111111111110101010011110010101000101010100 -
b1111111111111111111111111111111111011000110001100001000010110001 "
b1110010101111110100000111100101 !
#140
1+
1,
0(
0)
1*
b1111111111111111111111111111111111001100001101010010011110011001 '
b1111111111111111111111111111111111001100001101010010011110011001 0
b1111111111111111111111111111111110100011000001000010011001000110 /
b1111111111111111111111111111111111110111111111101111111011101111 .
b1010100111110101101100010101001 -
b1111111111111111111111111111111111100111011001101111111011001110 "
b1111111111111111111111111111111110110011100111000010011001100111 !
#145
1*
1+
1,
0(
0)
b1111111111111111111111111111111111110101110101110011111111101011 '
b1111111111111111111111111111111111110101110101110011111111101011 0
b1111111111111111111111111111111110000000000000000011001000000000 /
b1111111111111111111111111111111110010101110101110111001000101011 .
b10101110101110100000000101011 -
b1111111111111111111111111111111110010000000000000011001000100000 "
b1111111111111111111111111111111110000101110101110111001000001011 !
#150
0&
0*
0+
b11010000110011110000000110 '
b1111111111111111111111111111111110011011001100110011100100110101 0
b11010000110011110000000110 /
b1111111111111111111111111111111110010111111011111111110100101111 .
b1111111111111111111111111111111110010100101011001100000100101001 -
0,
0$
0%
b10111011001111111110100101110 "
b1111111111111111111111111111111110000011110010110011110000000111 !
b100 #
#155
b100000100100100100000001 '
b1010010001111001011001010100100 0
b100000100100100100000001 /
b1010001101110100110100110100011 .
b1010001001110000010000010100010 -
b1010001100000100110100110100011 "
b101110100100100100000001 !
#160
1,
0)
b1000000000000101010000010000000 '
b111100100000011000100001111000 0
b1000000000000101010000010000000 /
b1111111111111111111111111111111111111100011111101110011111111000 .
b1111111111111111111111111111111110111100011111000100011101111000 -
b1111111111111111111111111111111111110000000011101010001011100000 "
b1001100011100101110010110011000 !
#165
1*
b1111111111111111111111111111111110001011100000000100000000010111 '
b1111111111111111111111111111111101100111011100000001110011001110 0
b1111111111111111111111111111111110001011100000000100000000010111 /
b1111111111111111111111111111111111011011111011111101110010110111 .
b1010000011011111001110010100000 -
b1111111111111111111111111111111111001011110010110101000010010111 "
b1111111111111111111111111111111110011011101001001100110000110111 !
#170
0)
0*
b1010010100000000000000010100101 '
1,
b110010011010111111101001100100 0
b1010010100000000000000010100101 /
b1111111111111111111111111111111111011111111010111111100110111111 .
b1111111111111111111111111111111110001101011010111111100100011010 -
b1011111100010011111000110111111 "
b1111111111111111111111111111111111010010111000100000100010100101 !
#175
b1100000000000000100001111000000 '
0,
b11011101100011000000111110111011 0
b1100000000000000100001111000000 /
b1111101100010111100101111111011 .
b11101100010111000100000111011 -
b1101100100010010100001111011001 "
b1110001000000101100101111100010 !
#180
1,
0)
b100000001001000001010001000000 '
b10111100100101111010000101110 0
b100000001001000001010001000000 /
b1111111111111111111111111111111111110111011011101101111111101110 .
b1111111111111111111111111111111111010111010010101100101110101110 -
b1111111111111111111111111111111111110101001011101001111011101010 "
b100010011001000101010101000100 !
#185
b1010000001100100101000010100000 '
b101000001100010010111001001111 0
b1010000001100100101000010100000 /
b1111111111111111111111111111111111010111111111101101110110101111 .
b1111111111111111111111111111111110000111110011001000110100001111 -
b1111111111111111111111111111111111010110111101100101110010101101 "
b1010001001110101101000110100010 !
#190
0)
b111110001000100010000001111100 '
1,
b111110001000010110000001111011 0
b111110001000100010000001111100 /
b1111111111111111111111111111111111111111111111110011111111111111 .
b1111111111111111111111111111111111000001110111010001111110000011 -
b111110001100110010101101111100 "
b1111111111111111111111111111111111111111111011100011010011111111 !
#195
0,
0)
b1001100000010100000000010 '
b1111111111111111111111111111111111110111001011101010000111101101 0
b1001100000010100000000010 /
b1111111111111111111111111111111111110101111111100111100111101011 .
b1111111111111111111111111111111111110100110011100101000111101001 -
b1100101111101000111100111001011 "
b1111111111111111111111111111111110010001001110100010100000100010 !
#200
0)
1*
b1111111111111111111111111111111110000110101010111101011000001101 '
b10010111010000011000000101 0
b1111111111111111111111111111111110000100000010001101000000001000 /
b1111111111111111111111111111111110000110101010111101011000001101 .
b10101000110000011000000101 -
0,
b1111111111111111111111111111111110000100001010111101000000001000 "
b1111111111111111111111111111111110000110100010001101011000001101 !
b101 #
#205
0,
0)
b1111111111111111111111111111111111011111111010011111111010111111 '
b1001110101111010100000010100 0
b1111111111111111111111111111111111010101110000000001011010101011 /
b1111111111111111111111111111111111011111111010011111111010111111 .
b1010001010011110100000010100 -
b1111111111111111111111111111111111010101111010010011011010101011 "
b1111111111111111111111111111111111011111110000001101111010111111 !
#210
0)
0*
b1111001011111101010111111110010 '
1,
b1111111111111111111111111111111111101111001101111001100111011110 0
b1001000010001100000010110010000 /
b1111001011111101010111111110010 .
b110001001110001010101001100010 -
b1101001010001101000110111010010 "
b1011000011111100010011110110000 !
#215
1*
b1111111111111111111111111111111111111111011111011111000111111110 '
b1111011000100111101000011110110 0
b1100000010010011100000011000000 /
b1111111111111111111111111111111111111111011111011111000111111110 .
b1111111111111111111111111111111110011111001101000011000100111110 -
b1111111111111111111111111111111111110010010110011111000011100100 "
b1101101011011011100000111011010 !
#220
1,
0)
b1111111111111111111111111111111110011111010001111101111000111110 '
b1111111111111111111111111111111111110010111111011011000111100110 0
b1111111111111111111111111111111110010000010001000000100000100000 /
b1111111111111111111111111111111110011111010001111101111000111110 .
b1111000000111101011000011110 -
b1111111111111111111111111111111110011110010001110001101000111100 "
b1111111111111111111111111111111110010001010001001100110000100010 !
#225
b1111111111111111111111111111111111110011110011111101100111100111 '
b10010000010000101001100100100001 0
b1100011000000100100000011000110 /
b1111111111111111111111111111111111110011110011111101100111100111 .
b1111111111111111111111111111111110010000110011011001100100100001 -
b1111111111111111111111111111111111100011010001111100000011000110 "
b1110011100010100101100111100111 !
#230
b1111111111111111111111111111111111101110011011101111111111011100 '
b10110101111010010100011101101100 0
b100100000000000011000001001000 /
b1111111111111111111111111111111111101110011011101111111111011100 .
b1111111111111111111111111111111111001010011011101100111110010100 -
b1111111111111111111111111111111110101110010000101111010001011100 "
b1100100001011000011101111001000 !
#235
b1111111111111111111111111111111111110111110111111111010111101111 '
0,
b1111111111111111111111111111111101101111010010110110111011011111 0
b1100100000000101000010011001000 /
b1111111111111111111111111111111111110111110111111111010111101111 .
b1111111111111111111111111111111110010011110111010111000100100111 -
b1110110010010111000010111101100 "
b1111111111111111111111111111111111100101100101101111010011001011 !
#240
b1111111111111111111111111111111110011111110111011101111100111111 '
1,
b1110111101010110011110011101111 0
b10000000010000001001000100000 /
b1111111111111111111111111111111110011111110111011101111100111111 .
b1111111111111111111111111111111110001111110101011100110100011111 -
b1111111111111111111111111111111110011100000111010101101000111000 "
b10011110010001001011100100111 !
#245
b1111111111111111111111111111111111111111111101111101110111111111 '
0,
b1111111111111111111111111111111101011010001001001100001010110101 0
b1011001000100001001100010110010 /
b1111111111111111111111111111111111111111111101111101110111111111 .
b1111111111111111111111111111111110100110111001110100010101001101 -
b1111111011100011101100111111110 "
b1111111111111111111111111111111111011001100101101001110010110011 !
#250
0*
b1100011110111011001010011000111 '
b1111111111111111111111111111111101111011111000100001010011110111 0
b1111111111111111111111111111111110001100000000100100000000011000 /
b1111111111111111111111111111111111101111110111111101010011011111 .
b1100011110111011001010011000111 -
1,
b1111111111111111111111111111111111001101110000110100010010011011 "
b1111111111111111111111111111111110101110000111101101000001011100 !
b110 #
#255
0)
1*
b1111111111111111111111111111111111011110110011000011100110111101 '
1,
b100000111100100011111001000001 0
b100001000100110000001001000010 /
b1111111111111111111111111111111111111111110111110011101111111111 .
b1111111111111111111111111111111111011110110011000011100110111101 -
b101101110101110001101101011011 "
b1111111111111111111111111111111111110011000110110010001011100110 !
#260
0*
b111000101101111110001001110001 '
b1111111111111111111111111111111100111010101110000000001001110101 0
b1111111111111111111111111111111110000001000000000001000000000010 /
b1111111111111111111111111111111110111001101101111111001001110011 .
b111000101101111110001001110001 -
b1111111111111111111111111111111110000001001001110111000000000010 "
b1111111111111111111111111111111110111001100100001001001001110011 !
#265
b101101000100100110110001011010 '
b1111111111111111111111111111111111001101000101000110110110011010 0
b1111111111111111111111111111111111010000000000010000000010100000 /
b1111111111111111111111111111111111111101000100110110110011111010 .
b101101000100100110110001011010 -
b1111111111111111111111111111111111110000000000110110000011100000 "
b1111111111111111111111111111111111011101000100010000110010111010 !
#270
b1111000011101100001011011110000 '
b1111111111111111111111111111111110000101100001101010011100001010 0
b1111111111111111111111111111111110000110100010000100100000001101 /
b1111111111111111111111111111111111111110111111100101111011111101 .
b1111000011101100001011011110000 -
b1111111111111111111111111111111111000110111111100101110010001101 "
b1111111111111111111111111111111110111110100010000100101001111101 !
#275
0)
1*
b1111111111111111111111111111111111011010010011010010011110110100 '
0,
b1111111111111111111111111111111111100010010100100011011111000100 0
b100000000101000100000001000 /
b1111111111111111111111111111111111011110010011111010111110111100 .
b1111111111111111111111111111111111011010010011010010011110110100 -
b1000100000001101000110110001000 "
b1111111111111111111111111111111110011110010010111010101000111100 !
#280
1,
0)
b1111111111111111111111111111111111100110110111110110001111001101 '
b11001000111110110010000110001 0
b11001001000000000000000110010 /
b1111111111111111111111111111111111111111111111110110001111111111 .
b1111111111111111111111111111111111100110110111110110001111001101 -
b1111111111111111111111111111111110111111001110100100000001111110 "
b1011001111001010010001110110011 !
#285
0,
0)
b1111111111111111111111111111111111011011100001010011000110110111 '
b1111111111111111111111111111111111100100001001010100000111000111 0
b100010100000000100000001000 /
b1111111111111111111111111111111111011111110101010011100110111111 .
b1111111111111111111111111111111111011011100001010011000110110111 -
b1111111111111111111111111111111110001111010101000011100000011110 "
b1010100110100010000100110101001 !
#290
b1111111111111111111111111111111111010111011000000001111110101110 '
b1111111111111111111111111111111111010111011011100001111110101110 0
b1110000000000000000 /
b1111111111111111111111111111111111010111011001110001111110101110 .
b1111111111111111111111111111111111010111011000000001111110101110 -
b1111111111111111111111111111111110010011010001110001100000100110 "
b1000100001001110000011110001000 !
#295
0*
b1111001101110100011000011110011 '
1,
b1111111111111111111111111111111101111110010001011011000011111011 0
b1111111111111111111111111111111110000010010001011100000000000100 /
b1111111111111111111111111111111111111011111111111111000011110111 .
b1111001101110100011000011110011 -
b1111111111111111111111111111111111011010010111111100000010110100 "
b1111111111111111111111111111111110100011111001011111000001000111 !
#300
1(
1)
0*
b111111111111111111111111111111111111111111111111100111110111111 '
b111111111111111111111111111111111111111111111111100111110111111 0
1%
b0 /
b1000000000000000000000000000000000000000000000000011000001000001 .
b1000000000000000000000000000000000000000000000000011000001000001 -
0,
1$
b11000001000001 "
b1000000000000000000000000000000000000000000000000000000000000000 !
b11 #
#305
0&
1*
b1111111111111111111111111111111111111111111111111111111111111110 '
0+
b1111111111111111111111111111111111111111111111111111111111111110 0
b111111111111111111111111111111111111111111111111111111111111111 /
b111111111111111111111111111111111111111111111111111111111111111 .
b0 -
0,
b111111111111111111111111111111111111111111111111111111111111111 "
b111111111111111111111111111111111111111111111111111111111111111 !
b10 #
