lab2/verilog/arithmetic_wave.vcd
$date
	Fri Jan 26 16:48:47 2018
$end
$version
	Icarus Verilog
$end
$timescale
	1s
$end
$scope module tb_arithmetic $end
$scope module dut $end
$var wire 64 ! A [63:0] $end
$var wire 64 " B [63:0] $end
$var wire 1 # C $end
$var wire 1 $ of $end
$var wire 1 % sub $end
$var wire 64 & out [63:0] $end
$var wire 65 ' C0 [64:0] $end
$var wire 64 ( Btemp [63:0] $end
$upscope $end
$upscope $end
$enddefinitions $end
#0
$dumpvars
b1111111111111111111111111111111111111111111111111111111111111111 (
b11111111111111111111111111111111111111111111111111111111111111111 '
b0 &
1%
0$
0#
b0 "
b0 !
$end
#5
1#
0$
b11 '
b1111111111111111111111111111111111111111111111111111111111111111 &
b1111111111111111111111111111111111111111111111111100111110111101 (
b11000001000010 "
b11000001000001 !
#10
1#
0$
b111 '
b1111111111111111111111111111111111111111111111111111111111111110 &
b1111111111111111111111111111111111111111111111111001111101111011 (
b110000010000100 "
b110000010000010 !
#15
1#
0$
b111 '
b1111111111111111111111111111111111111111111111111111111111111101 &
b1111111111111111111111111111111111111111111111110110111100111001 (
b1001000011000110 "
b1001000011000011 !
#20
1#
0$
b1111 '
b1111111111111111111111111111111111111111111111111111111111111100 &
b1111111111111111111111111111111111111111111111110011111011110111 (
b1100000100001000 "
b1100000100000100 !
#25
1#
0$
b1011 '
b1111111111111111111111111111111111111111111111111111111111111011 &
b1111111111111111111111111111111111111111111111110000111010110101 (
b1111000101001010 "
b1111000101000101 !
#30
1#
0$
b1111 '
b1111111111111111111111111111111111111111111111111111111111111010 &
b1111111111111111111111111111111111111111111111101101111001110011 (
b10010000110001100 "
b10010000110000110 !
#35
1#
0$
b1111 '
b1111111111111111111111111111111111111111111111111111111111111001 &
b1111111111111111111111111111111111111111111111101010111000110001 (
b10101000111001110 "
b10101000111000111 !
#40
1#
0$
b11111 '
b1111111111111111111111111111111111111111111111111111111111111000 &
b1111111111111111111111111111111111111111111111100111110111101111 (
b11000001000010000 "
b11000001000001000 !
#45
1#
0$
b10011 '
b1111111111111111111111111111111111111111111111111111111111110111 &
b1111111111111111111111111111111111111111111111100100110110101101 (
b11011001001010010 "
b11011001001001001 !
#50
0#
1$
b10000000000000000000000000000000000000000000000000000000000000001 '
b111111111111111111111111111111111111111111111111100111110111111 &
b1111111111111111111111111111111111111111111111111100111110111110 (
b11000001000001 "
b1000000000000000000000000000000000000000000000000000000000000000 !
#55
0$
b0 &
b0 '
0#
b0 (
b0 "
b0 !
0%
#60
b110000010000000 '
b110000010000011 &
b11000001000010 (
b11000001000010 "
b11000001000001 !
#65
b1100000100000000 '
b1100000100000110 &
b110000010000100 (
b110000010000100 "
b110000010000010 !
#70
b10010000110001100 '
b10010000110001001 &
b1001000011000110 (
b1001000011000110 "
b1001000011000011 !
#75
b11000001000000000 '
b11000001000001100 &
b1100000100001000 (
b1100000100001000 "
b1100000100000100 !
#80
b11110001010000000 '
b11110001010001111 &
b1111000101001010 (
b1111000101001010 "
b1111000101000101 !
#85
b100100001100011000 '
b100100001100010010 &
b10010000110001100 (
b10010000110001100 "
b10010000110000110 !
#90
b101010001110011100 '
b101010001110010101 &
b10101000111001110 (
b10101000111001110 "
b10101000111000111 !
#95
b110000010000000000 '
b110000010000011000 &
b11000001000010000 (
b11000001000010000 "
b11000001000001000 !
#100
b110110010010000000 '
b110110010010011011 &
b11011001001010010 (
b11011001001010010 "
b11011001001001001 !
#105
1$
b1111111111111111111111111111111111111111111111111111111111111110 '
b1111111111111111111111111111111111111111111111111111111111111110 &
b111111111111111111111111111111111111111111111111111111111111111 (
b111111111111111111111111111111111111111111111111111111111111111 "
b111111111111111111111111111111111111111111111111111111111111111 !
#110
0$
b1111111111111111111111111111111111100011101001111000100111001000 &
b1111110000001111 '
1#
b1100011101001100111101111000111 (
b1111111111111111111111111111111110011100010110011000010000111000 "
b1111111111111111111111111111111110000000000000010000111000000000 !
1%
#115
b10000111111100111110011100001111 '
b10010101010001100010110100101010 &
b1010001111011001111001110100011 (
b1111111111111111111111111111111110101110000100110000110001011100 "
b1000011010110010011100110000110 !
#120
0#
0$
b11111111111111111111111111111111111111000010001100001111111110001 '
b11010101100111000000000111 &
b1111111111111111111111111111111110011100001100110110100000111000 (
b1100011110011001001011111000111 "
b1100111001000110000011111001110 !
#125
0$
1#
b1100000000000111100000011001 '
b1111111111111111111111111111111111101001001110111100100111010011 &
b110001010001001110100001100 (
b1111111111111111111111111111111111111001110101110110001011110011 "
b1111111111111111111111111111111111100011000100110010110011000110 !
#130
b10000011111011111100111100000111 '
b10110010010010000001111101100100 &
b1010000011100001011011110100000 (
b1111111111111111111111111111111110101111100011110100100001011111 "
b1100001110101110110011111000011 !
#135
b1000110000000011111111010001111 '
b1011110100111010100010010111110 &
b111011000101001101111101110110 (
b1111111111111111111111111111111111000100111010110010000010001001 "
b100011100010000110010101000111 !
#140
0#
0$
b11111111111111111111111111111111111111110010011111111111111111101 '
b11100010010101000010000111001 &
b1011101001000111110011110111010 (
b1111111111111111111111111111111110100010110111000001100001000101 "
b1111111111111111111111111111111110111111001001101001110001111110 !
#145
b11111111111111111111111111111111101111111111101111110000011111111 '
b1111111111111111111111111111111101100110000001100000111011001100 &
b1111111111111111111111111111111110110111001010111101111001101110 (
b1001000110101000010000110010001 "
b1111111111111111111111111111111110101110110110100011000001011101 !
#150
1#
b1100000111110111111111011000001 '
b1101111111000101001000011011111 &
b111000011101001011110101110000 (
b1111111111111111111111111111111111000111100010110100001010001111 "
b110111011011011101001101101110 !
#155
b111100011111111111101001111001 '
b111001011000001001101001110011 &
b11011001000111111110100110110 (
b1111111111111111111111111111111111100100110111000000001011001001 "
b11110001111001001110100111100 !
#160
0$
b1011111110110011011100010111111 &
b11111111111111111111111111111111111000000000111011000111110000000 '
1#
b1111111111111111111111111111111111101110010011101100001011011100 (
b1111111111111111111111111111111111101110010011101100001011011100 "
b1110001100010101111010111100011 !
0%
#165
b11111111111111111111111111111111101111100000000001100000011111000 '
b1111111111111111111111111111111101000101101011101001001010001011 &
b1111111111111111111111111111111110101111101011000010000001011111 (
b1111111111111111111111111111111110101111101011000010000001011111 "
b1111111111111111111111111111111110010110000000100111001000101100 !
#170
0$
0#
b10001000100011110000000100010 '
b1111111111111111111111111111111111110001011101110000010111100010 &
b1101000101011100101010111010001 (
b1101000101011100101010111010001 "
b1111111111111111111111111111111110001000110010001011000000010001 !
#175
b1110100100111100000000000 '
b1111111111111111111111111111111111101001000100101101001111010001 &
b1111111111111111111111111111111111101000101010011001010011010001 (
b1111111111111111111111111111111111101000101010011001010011010001 "
b11010010011111100000000 !
#180
1#
0$
b11111111111111111111111111111111111111111000001001110011111111110 '
b11000010011011110010000110000 &
b1111111111111111111111111111111110011000110000110111001000110001 (
b1111111111111111111111111111111110011000110000110111001000110001 "
b1111111100010100111000111111111 !
#185
b11111111111111111111111111111111101001110000000101111100010011100 '
b1111111111111111111111111111111101011000001101101000100010110000 &
b1111111111111111111111111111111110100101000100010011110001001010 (
b1111111111111111111111111111111110100101000100010011110001001010 "
b1111111111111111111111111111111110110011001001010100110001100110 !
#190
0$
0#
b101011000001000000000001010 '
b1111111111111111111111111111111111011101011011011011111110111010 &
b1111111111111111111111111111111110010010101101010101110000100101 (
b1111111111111111111111111111111110010010101101010101110000100101 "
b1001010101110000110001110010101 !
#195
b111111111111110111110001111110 '
b1111111111111111111111111111111111100000100000010110000111000000 &
b1111111111111111111111111111111111010100110100111011011010101001 (
b1111111111111111111111111111111111010100110100111011011010101001 "
b1011101011011010101100010111 !
#200
0$
1#
b11111111111111111111111111111111110000111111111100001111100001110 '
b101101111000000111101001011010 &
b1001011111101010000101110010111 (
b1001011111101010000101110010111 "
b1111111111111111111111111111111111100001111010110110111011000011 !
#205
0#
b11111100000000000000011111111000 '
b11001001011110010111111110010010 &
b1111011001100010101101111110110 (
b1111011001100010101101111110110 "
b1001110010010000010001110011100 !
