lab2/verilog/arithmetic_wave.vcd
$date
	Mon Jan 29 16:34:25 2018
$end
$version
	Icarus Verilog
$end
$timescale
	1s
$end
$scope module tb_arithmetic $end
$scope module dut $end
$var wire 64 ! A [63:0] $end
$var wire 64 " B [63:0] $end
$var wire 1 # C $end
$var wire 1 $ of $end
$var wire 1 % sub $end
$var wire 64 & out [63:0] $end
$var wire 65 ' C0 [64:0] $end
$var wire 64 ( Btemp [63:0] $end
$upscope $end
$upscope $end
$enddefinitions $end
#0
$dumpvars
b1111111111111111111111111111111111111111111111111111111111111111 (
b11111111111111111111111111111111111111111111111111111111111111111 '
b0 &
1%
0$
0#
b0 "
b0 !
$end
#5
1#
0$
b11 '
b1111111111111111111111111111111111111111111111111111111111111111 &
b1111111111111111111111111111111111111111111111111100111110111101 (
b11000001000010 "
b11000001000001 !
#10
1#
0$
b111 '
b1111111111111111111111111111111111111111111111111111111111111110 &
b1111111111111111111111111111111111111111111111111001111101111011 (
b110000010000100 "
b110000010000010 !
#15
1#
0$
b111 '
b1111111111111111111111111111111111111111111111111111111111111101 &
b1111111111111111111111111111111111111111111111110110111100111001 (
b1001000011000110 "
b1001000011000011 !
#20
1#
0$
b1111 '
b1111111111111111111111111111111111111111111111111111111111111100 &
b1111111111111111111111111111111111111111111111110011111011110111 (
b1100000100001000 "
b1100000100000100 !
#25
1#
0$
b1011 '
b1111111111111111111111111111111111111111111111111111111111111011 &
b1111111111111111111111111111111111111111111111110000111010110101 (
b1111000101001010 "
b1111000101000101 !
#30
1#
0$
b1111 '
b1111111111111111111111111111111111111111111111111111111111111010 &
b1111111111111111111111111111111111111111111111101101111001110011 (
b10010000110001100 "
b10010000110000110 !
#35
1#
0$
b1111 '
b1111111111111111111111111111111111111111111111111111111111111001 &
b1111111111111111111111111111111111111111111111101010111000110001 (
b10101000111001110 "
b10101000111000111 !
#40
1#
0$
b11111 '
b1111111111111111111111111111111111111111111111111111111111111000 &
b1111111111111111111111111111111111111111111111100111110111101111 (
b11000001000010000 "
b11000001000001000 !
#45
1#
0$
b10011 '
b1111111111111111111111111111111111111111111111111111111111110111 &
b1111111111111111111111111111111111111111111111100100110110101101 (
b11011001001010010 "
b11011001001001001 !
#50
0#
1$
b10000000000000000000000000000000000000000000000000000000000000001 '
b111111111111111111111111111111111111111111111111100111110111111 &
b1111111111111111111111111111111111111111111111111100111110111110 (
b11000001000001 "
b1000000000000000000000000000000000000000000000000000000000000000 !
#55
0$
b0 &
b0 '
0#
b0 (
b0 "
b0 !
0%
#60
b110000010000000 '
b110000010000011 &
b11000001000010 (
b11000001000010 "
b11000001000001 !
#65
b1100000100000000 '
b1100000100000110 &
b110000010000100 (
b110000010000100 "
b110000010000010 !
#70
b10010000110001100 '
b10010000110001001 &
b1001000011000110 (
b1001000011000110 "
b1001000011000011 !
#75
b11000001000000000 '
b11000001000001100 &
b1100000100001000 (
b1100000100001000 "
b1100000100000100 !
#80
b11110001010000000 '
b11110001010001111 &
b1111000101001010 (
b1111000101001010 "
b1111000101000101 !
#85
b100100001100011000 '
b100100001100010010 &
b10010000110001100 (
b10010000110001100 "
b10010000110000110 !
#90
b101010001110011100 '
b101010001110010101 &
b10101000111001110 (
b10101000111001110 "
b10101000111000111 !
#95
b110000010000000000 '
b110000010000011000 &
b11000001000010000 (
b11000001000010000 "
b11000001000001000 !
#100
b110110010010000000 '
b110110010010011011 &
b11011001001010010 (
b11011001001010010 "
b11011001001001001 !
#105
1$
b1111111111111111111111111111111111111111111111111111111111111110 '
b1111111111111111111111111111111111111111111111111111111111111110 &
b111111111111111111111111111111111111111111111111111111111111111 (
b111111111111111111111111111111111111111111111111111111111111111 "
b111111111111111111111111111111111111111111111111111111111111111 !
#110
0$
b1111111111111111111111111111111111000111010100000001111110001111 &
b111000000000000000001 '
1#
b1000111010011100000001110001110 (
b1111111111111111111111111111111110111000101100011111110001110001 "
b1111111111111111111111111111111110000000000000100001110000000000 !
1%
#115
0#
b11111111111111111111111111111111111011100111001111100000110111001 '
b1111111111111111111111111111111111010001100011000000110110100011 &
b1111111111111111111111111111111111100111001100110010000011001110 (
b11000110011001101111100110001 "
b1111111111111111111111111111111111101010010110001110110011010100 !
#120
0$
1#
b1100000010011111111 '
b1111111111111111111111111111111110111111101111001101110110000000 &
b1111111111111111111111111111111110011111100010011101101000111111 (
b1100000011101100010010111000000 "
b100000001100110000001101000000 !
#125
0#
0$
b11111111111111111111111111111111111011100100000111000111110111001 '
b1010001101111100010100010100011 &
b1111111111111111111111111111111111101111011001000110011011011110 (
b10000100110111001100100100001 "
b1100010010110011100000111000100 !
#130
0$
1#
b111111111111111100000001111 '
b1111111111111111111111111111111111001100100100000100000110011001 &
b10101110001101010100000101 (
b1111111111111111111111111111111111111101010001110010101011111010 "
b1111111111111111111111111111111111001001110101110110110010010011 !
#135
0#
b11111111111111111111111111111111100111111000000000000000001111111 '
b1111111111111111111111111111111100110001001100111010011001100011 &
b1111111111111111111111111111111110011001101100100010010000110011 (
b1100110010011011101101111001100 "
b1111111111111111111111111111111110010111100000011000001000101111 !
#140
0$
0#
b11111111111111111111111111111111111110010110111001111011111100101 '
b110010110100001000010001100101 &
b1111001011011100110101111110010 (
b1111111111111111111111111111111110000110100100011001010000001101 "
b1111111111111111111111111111111110111001011000100001100001110010 !
#145
1#
0$
b1111111111000111001000011111111 '
b1111111111111111111111111111111111011000000010100011010110110000 &
b11101001100011110110100111010 (
b1111111111111111111111111111111111100010110011100001001011000101 "
b1111111111111111111111111111111110111010110110000100100001110101 !
#150
b1000000000011100001100010000001 '
b1111111111111111111111111111111111001110010111101101000110011101 &
b1111111111111111111111111111111110101000010101110100110001010000 (
b1010111101010001011001110101111 "
b100110000001111000010101001100 !
#155
b11101001000110111110101111010011 '
b11001001011100101000101110010011 &
b1010100100001001001010110101001 (
b1111111111111111111111111111111110101011011110110110101001010110 "
b1110100111011011111010111101001 !
#160
0$
b1101001010011000111101011010010 &
b11111111111111111111111111111111111111100011001110000001111111000 '
1#
b1101011000100101001000111010110 (
b1101011000100101001000111010110 "
b1111111111111111111111111111111111111110001110011110100011111100 !
0%
#165
0$
1#
b11111111111111111111111111111111111110011111010000001111111100100 '
b111000010111111000000001101 &
b1111111111111111111111111111111111001001010101011100111010010010 (
b1111111111111111111111111111111111001001010101011100111010010010 "
b111101101101100010000101111011 !
#170
0#
b10000011000011111000001100000110 '
b10101010011110010011101101010100 &
b1001000100100111111100110010001 (
b1001000100100111111100110010001 "
b1100001111001010100000111000011 !
#175
1#
b11111111111111111111111111111111100100001110000111101000001000000 '
b1111111111111111111111111111111101101001000011100001010011010001 &
b1111111111111111111111111111111111010000111010011110110010100001 (
b1111111111111111111111111111111111010000111010011110110010100001 "
b1111111111111111111111111111111110011000001001000010100000110000 !
#180
0$
0#
b1101111111100001111100011000000 '
b1111111111111111111111111111111111001000011001111100001110001111 &
b1111111111111111111111111111111110110001111111000111011001100011 (
b1111111111111111111111111111111110110001111111000111011001100011 "
b10110011010110100110100101100 !
#185
1#
b11111111111111111111111111111111100111111111111100101110001111110 '
b1111111111111111111111111111111101100100100001000101010011001000 &
b1111111111111111111111111111111110010110111111010010111000101101 (
b1111111111111111111111111111111110010110111111010010111000101101 "
b1111111111111111111111111111111111001101100001110010011010011011 !
#190
b11111111111111111111111111111111111100001111111000000110111000000 '
b1111111111111111111111111111111111001011000100011101110110010101 &
b1111111111111111111111111111111111011010101100100101011010110101 (
b1111111111111111111111111111111111011010101100100101011010110101 "
b1111111111111111111111111111111111110000010111111000011011100000 !
#195
b11111111111111111111111111111111100111011110000111000000001110110 '
b1111111111111111111111111111111100100010100111111011100001000100 &
b1111111111111111111111111111111110011101111110011100000000111011 (
b1111111111111111111111111111111110011101111110011100000000111011 "
b1111111111111111111111111111111110000100101001011111100000001001 !
#200
b11111111111111111111111111111111111111111111111000100000111111100 '
b1111111111111111111111111111111110100101000000011100111101001001 &
b1111111111111111111111111111111110110101111111101010011001101011 (
b1111111111111111111111111111111110110101111111101010011001101011 "
b1111111111111111111111111111111111101111000000110010100011011110 !
#205
0$
0#
b1101000110000000000000 '
b1111111111111111111111111111111111111000101101011100101111110001 &
b1111111111111111111111111111111110101000000110101001000001010000 (
b1111111111111111111111111111111110101000000110101001000001010000 "
b1010000100110110011101110100001 !
